…
``` r
gather(data.non.numeric, "Column", "Value") %>%
  count(Column, Value) %>%
  group_by(Column) %>%             
  mutate(Percentage = prop.table(n)) %>%
  rename(Count = n)
```

    ## Warning: attributes are not identical across measure variables;
    ## they will be dropped

    ## # A tibble: 66 x 4
    ## # Groups:   Column [17]
    ##    Column         Value                  Count Percentage
    ##    <chr>          <chr>                  <int>      <dbl>
    ##  1 Attrition      No                       730     0.839 
    ##  2 Attrition      Yes                      140     0.161 
    ##  3 BusinessTravel Non-Travel                94     0.108 
    ##  4 BusinessTravel Travel_Frequently        158     0.182 
    ##  5 BusinessTravel Travel_Rarely            618     0.710 
    ##  6 Department     Human Resources           35     0.0402
    ##  7 Department     Research & Development   562     0.646 
    ##  8 Department     Sales                    273     0.314 
    ##  9 Education      Five                      26     0.0299
    ## 10 Education      Four                     240     0.276 
    ## # ... with 56 more rows
…
